Lance Nemecek - Strings And The New York Times
…
── Conflicts ────────────────────────────────────────── tidyverse_conflicts() ──
✖ dplyr::filter() masks stats::filter()
✖ dplyr::lag()    masks stats::lag()
ℹ Use the conflicted package (<http://conflicted.r-lib.org/>) to force all conflicts to become errors

library(lubridate)
library(statebins)

data(NYTimes)
as_tibble(NYTimes)

# A tibble: 3,104 × 5
   Article_ID Date      Title                                 Subject Topic.Code
        <int> <fct>     <fct>                                 <fct>        <int>
 1      41246 1-Jan-96  Nation's Smaller Jails Struggle To C… Jails …         12
 2      41257 2-Jan-96  FEDERAL IMPASSE SADDLING STATES WITH… Federa…         20
 3      41268 3-Jan-96  Long, Costly Prelude Does Little To … Conten…         20
 4      41279 4-Jan-96  Top Leader of the Bosnian Serbs Now … Bosnia…         19
 5      41290 5-Jan-96  BATTLE OVER THE BUDGET: THE OVERVIEW… Battle…          1
 6      41302 7-Jan-96  South African Democracy Stumbles on … politi…         19
 7      41314 8-Jan-96  Among Economists, Little Fear on Def… econom…          1
 8      41333 10-Jan-96 BATTLE OVER THE BUDGET: THE OVERVIEW… budget…          1
 9      41344 11-Jan-96 High Court Is Cool To Census Change   census…         20
10      41355 12-Jan-96 TURMOIL AT BARNEYS: THE DIFFICULTIES… barney…         15
# ℹ 3,094 more rows
…
NYTimes$Title <- str_to_lower(NYTimes$Title)

NYTstates <- tibble(
  Title = NYTimes$Title,
  State = sapply(NYTimes$Title, extract_state))

NYTstates <- NYTstates |>
  filter(!is.na(State))

print(NYTstates)

# A tibble: 167 × 2
   Title                                                                   State
   <chr>                                                                   <chr>
 1 despite deep grass roots in iowa, gramm struggles to catch forbes       iowa 
 2 moderating path, rowland aims at healing of connecticut cities          conn…
 3 high water in oregon                                                    oreg…
 4 politics: the issues; south carolina is a crossroads for the g.o.p.     sout…
 5 politics: changing direction; dole easily beats buchanan to win in sou… sout…
 6 the race for congress: texas' 14th district; under fire, a g.o.p. conv… texas
 7 new york council to ask voters to postpone limits on its terms          new …
 8 schools head urges abolishing tenure for new york principals            new …
 9 california's governor joins g.o.p. abortion-plank foes                  cali…
10 a new kansas senator                                                    kans…
# ℹ 157 more rows
…
